{
  "themes": {
    "items": [
      {
        "url": "http://gisserver:8000",
        "attribution": "Nicholas R. Hein",
        "attributionUrl": "https://paradoxdev.com",
        "mapCrs": "EPSG:3857"
      }
    ],
    "groups": [],
    "externalLayers": [],
    "backgroundLayers": []
  },
  "defaultScales": [
    16000000,
    4000000
  ],
  "defaultPrintGrid": [
    {
      "s": 10000,
      "x": 1000,
      "y": 1000
    },
    {
      "s": 1000,
      "x": 100,
      "y": 100
    },
    {
      "s": 100,
      "x": 10,
      "y": 10
    }
  ],
  "defaultWMSVersion": "1.3.0"
}
